<?xml version="1.0" encoding="UTF-8" standalone="no"?>
<!-- Created with Inkscape (http://www.inkscape.org/) -->

<svg
   xmlns:dc="http://purl.org/dc/elements/1.1/"
   xmlns:cc="http://creativecommons.org/ns#"
   xmlns:rdf="http://www.w3.org/1999/02/22-rdf-syntax-ns#"
   xmlns:svg="http://www.w3.org/2000/svg"
   xmlns="http://www.w3.org/2000/svg"
   xmlns:sodipodi="http://sodipodi.sourceforge.net/DTD/sodipodi-0.dtd"
   xmlns:inkscape="http://www.inkscape.org/namespaces/inkscape"
   width="680.55475"
   height="174.05423"
   viewBox="0 0 180.06344 46.051848"
   version="1.1"
   id="svg8"
   inkscape:version="0.92.1 r15371"
   sodipodi:docname="memory-layout-bytealignment.svg">
  <defs
     id="defs2">
    <marker
       inkscape:stockid="StopL"
       orient="auto"
       refY="0"
       refX="0"
       id="StopL"
       style="overflow:visible"
       inkscape:isstock="true">
      <path
         id="path4857"
         d="M 0,5.65 V -5.65"
         style="fill:none;fill-opacity:0.75;fill-rule:evenodd;stroke:#000000;stroke-width:1.00000003pt;stroke-opacity:1"
         transform="scale(0.8)"
         inkscape:connector-curvature="0" />
    </marker>
    <marker
       inkscape:stockid="StopL"
       orient="auto"
       refY="0"
       refX="0"
       id="StopL-3"
       style="overflow:visible"
       inkscape:isstock="true">
      <path
         inkscape:connector-curvature="0"
         id="path4857-8"
         d="M 0,5.65 V -5.65"
         style="fill:none;fill-opacity:0.75;fill-rule:evenodd;stroke:#000000;stroke-width:1.00000003pt;stroke-opacity:1"
         transform="scale(0.8)" />
    </marker>
    <marker
       inkscape:stockid="StopL"
       orient="auto"
       refY="0"
       refX="0"
       id="marker5024"
       style="overflow:visible"
       inkscape:isstock="true">
      <path
         inkscape:connector-curvature="0"
         id="path5022"
         d="M 0,5.65 V -5.65"
         style="fill:none;fill-opacity:0.75;fill-rule:evenodd;stroke:#000000;stroke-width:1.00000003pt;stroke-opacity:1"
         transform="scale(0.8)" />
    </marker>
    <marker
       inkscape:stockid="StopL"
       orient="auto"
       refY="0"
       refX="0"
       id="StopL-3-1"
       style="overflow:visible"
       inkscape:isstock="true">
      <path
         inkscape:connector-curvature="0"
         id="path4857-8-3"
         d="M 0,5.65 V -5.65"
         style="fill:none;fill-opacity:0.75;fill-rule:evenodd;stroke:#000000;stroke-width:1.00000003pt;stroke-opacity:1"
         transform="scale(0.8)" />
    </marker>
    <marker
       inkscape:stockid="StopL"
       orient="auto"
       refY="0"
       refX="0"
       id="marker5389"
       style="overflow:visible"
       inkscape:isstock="true">
      <path
         inkscape:connector-curvature="0"
         id="path5387"
         d="M 0,5.65 V -5.65"
         style="fill:none;fill-opacity:0.75;fill-rule:evenodd;stroke:#000000;stroke-width:1.00000003pt;stroke-opacity:1"
         transform="scale(0.8)" />
    </marker>
    <marker
       inkscape:stockid="StopL"
       orient="auto"
       refY="0"
       refX="0"
       id="StopL-5"
       style="overflow:visible"
       inkscape:isstock="true">
      <path
         inkscape:connector-curvature="0"
         id="path4857-89"
         d="M 0,5.65 V -5.65"
         style="fill:none;fill-opacity:0.75;fill-rule:evenodd;stroke:#000000;stroke-width:1.00000003pt;stroke-opacity:1"
         transform="scale(0.8)" />
    </marker>
    <marker
       inkscape:stockid="StopL"
       orient="auto"
       refY="0"
       refX="0"
       id="marker5770"
       style="overflow:visible"
       inkscape:isstock="true">
      <path
         inkscape:connector-curvature="0"
         id="path5768"
         d="M 0,5.65 V -5.65"
         style="fill:none;fill-opacity:0.75;fill-rule:evenodd;stroke:#000000;stroke-width:1.00000003pt;stroke-opacity:1"
         transform="scale(0.8)" />
    </marker>
    <marker
       inkscape:stockid="StopL"
       orient="auto"
       refY="0"
       refX="0"
       id="StopL-5-5"
       style="overflow:visible"
       inkscape:isstock="true">
      <path
         inkscape:connector-curvature="0"
         id="path4857-89-6"
         d="M 0,5.65 V -5.65"
         style="fill:none;fill-opacity:0.75;fill-rule:evenodd;stroke:#000000;stroke-width:1.00000003pt;stroke-opacity:1"
         transform="scale(0.8)" />
    </marker>
    <marker
       inkscape:stockid="StopL"
       orient="auto"
       refY="0"
       refX="0"
       id="marker6263"
       style="overflow:visible"
       inkscape:isstock="true">
      <path
         inkscape:connector-curvature="0"
         id="path6261"
         d="M 0,5.65 V -5.65"
         style="fill:none;fill-opacity:0.75;fill-rule:evenodd;stroke:#000000;stroke-width:1.00000003pt;stroke-opacity:1"
         transform="scale(0.8)" />
    </marker>
  </defs>
  <sodipodi:namedview
     id="base"
     pagecolor="#ffffff"
     bordercolor="#666666"
     borderopacity="1.0"
     inkscape:pageopacity="0.0"
     inkscape:pageshadow="2"
     inkscape:zoom="1.4"
     inkscape:cx="257.8446"
     inkscape:cy="93.776354"
     inkscape:document-units="mm"
     inkscape:current-layer="layer1"
     showgrid="true"
     units="px"
     inkscape:window-width="1920"
     inkscape:window-height="1017"
     inkscape:window-x="-8"
     inkscape:window-y="-8"
     inkscape:window-maximized="1"
     fit-margin-top="0"
     fit-margin-left="0"
     fit-margin-right="0"
     fit-margin-bottom="0">
    <inkscape:grid
       type="xygrid"
       id="grid4485"
       spacingx="3.96875"
       spacingy="3.96875"
       empspacing="8"
       originx="33.075721"
       originy="-94.052201" />
  </sodipodi:namedview>
  <metadata
     id="metadata5">
    <rdf:RDF>
      <cc:Work
         rdf:about="">
        <dc:format>image/svg+xml</dc:format>
        <dc:type
           rdf:resource="http://purl.org/dc/dcmitype/StillImage" />
        <dc:title></dc:title>
      </cc:Work>
    </rdf:RDF>
  </metadata>
  <g
     inkscape:label="Layer 1"
     inkscape:groupmode="layer"
     id="layer1"
     transform="translate(33.075721,-156.89593)">
    <path
       style="fill:none;stroke:#000000;stroke-width:0.07937498;stroke-linecap:butt;stroke-linejoin:miter;stroke-miterlimit:4;stroke-dasharray:0.07937499, 0.07937499;stroke-dashoffset:0;stroke-opacity:1"
       d="m -11.952968,162.06247 v 35.71875"
       id="path5424"
       inkscape:connector-curvature="0" />
    <rect
       style="fill:#d7f4d7;fill-opacity:1;stroke:#000000;stroke-width:0.26458332;stroke-linecap:square;stroke-miterlimit:4;stroke-dasharray:none;stroke-dashoffset:0;stroke-opacity:1"
       id="rect4487-4-0-3"
       width="7.9375005"
       height="31.761675"
       x="-173.96873"
       y="-11.952974"
       transform="rotate(-90)" />
    <text
       xml:space="preserve"
       style="font-style:normal;font-weight:normal;font-size:5.48753214px;line-height:1.25;font-family:sans-serif;text-align:center;letter-spacing:0px;word-spacing:0px;text-anchor:middle;fill:#000000;fill-opacity:1;stroke:none;stroke-width:0.26458332"
       x="3.9673274"
       y="163.6451"
       id="text4491-7-3-1"
       transform="scale(1.0001838,0.99981618)"><tspan
         sodipodi:role="line"
         id="tspan4489-7-9-6"
         x="3.9673269"
         y="163.6451"
         style="font-style:normal;font-variant:normal;font-weight:normal;font-stretch:normal;font-family:Consolas;-inkscape-font-specification:Consolas;text-align:center;text-anchor:middle;stroke-width:0.26458332">s1: BYTE</tspan></text>
    <text
       xml:space="preserve"
       style="font-style:normal;font-weight:normal;font-size:2.7063458px;line-height:1.25;font-family:sans-serif;text-align:center;letter-spacing:0px;word-spacing:0px;text-anchor:middle;fill:#000000;fill-opacity:1;stroke:none;stroke-width:0.26458332"
       x="-170.10986"
       y="19.128098"
       id="text4510-2-9-3"
       transform="matrix(0,-0.99981618,1.0001838,0,0,0)"><tspan
         sodipodi:role="line"
         id="tspan4508-1-1-4"
         x="-170.10986"
         y="19.128098"
         style="text-align:center;text-anchor:middle;stroke-width:0.26458332">LSB</tspan></text>
    <text
       xml:space="preserve"
       style="font-style:normal;font-weight:normal;font-size:2.7063458px;line-height:1.25;font-family:sans-serif;text-align:center;letter-spacing:0px;word-spacing:0px;text-anchor:middle;fill:#000000;fill-opacity:1;stroke:none;stroke-width:0.26458332"
       x="-170.10986"
       y="-9.1277561"
       id="text4510-0-9-6-1"
       transform="matrix(0,-0.99981618,1.0001838,0,0,0)"><tspan
         sodipodi:role="line"
         id="tspan4508-5-3-1-3"
         x="-170.10986"
         y="-9.1277561"
         style="text-align:center;text-anchor:middle;stroke-width:0.26458332">MSB</tspan></text>
    <text
       xml:space="preserve"
       style="font-style:normal;font-weight:normal;font-size:5.48753166px;line-height:1.25;font-family:sans-serif;text-align:center;letter-spacing:0px;word-spacing:0px;text-anchor:middle;fill:#000000;fill-opacity:1;stroke:none;stroke-width:0.26458332"
       x="83.356926"
       y="163.6451"
       id="text4491-6-6"
       transform="scale(1.0001838,0.99981618)"><tspan
         sodipodi:role="line"
         id="tspan4489-6-0"
         x="83.356926"
         y="163.6451"
         style="font-style:normal;font-variant:normal;font-weight:normal;font-stretch:normal;font-family:Consolas;-inkscape-font-specification:Consolas;text-align:center;text-anchor:middle;stroke-width:0.26458332">s2: WORD</tspan></text>
    <rect
       style="fill:#d7f4d7;fill-opacity:1;stroke:#000000;stroke-width:0.26458332;stroke-linecap:square;stroke-miterlimit:4;stroke-dasharray:none;stroke-dashoffset:0;stroke-opacity:1"
       id="rect4487-4-0-4-7"
       width="7.9375005"
       height="31.761675"
       x="-173.96873"
       y="115.09375"
       transform="rotate(-90)" />
    <text
       xml:space="preserve"
       style="font-style:normal;font-weight:normal;font-size:5.48753214px;line-height:1.25;font-family:sans-serif;text-align:center;letter-spacing:0px;word-spacing:0px;text-anchor:middle;fill:#000000;fill-opacity:1;stroke:none;stroke-width:0.26458332"
       x="130.99068"
       y="163.6451"
       id="text4491-7-3-2-0"
       transform="scale(1.0001838,0.99981618)"><tspan
         sodipodi:role="line"
         id="tspan4489-7-9-8-5"
         x="130.99068"
         y="163.6451"
         style="font-style:normal;font-variant:normal;font-weight:normal;font-stretch:normal;font-family:Consolas;-inkscape-font-specification:Consolas;text-align:center;text-anchor:middle;stroke-width:0.26458332">s3: BYTE</tspan></text>
    <text
       xml:space="preserve"
       style="font-style:normal;font-weight:normal;font-size:2.7063458px;line-height:1.25;font-family:sans-serif;text-align:center;letter-spacing:0px;word-spacing:0px;text-anchor:middle;fill:#000000;fill-opacity:1;stroke:none;stroke-width:0.26458332"
       x="-170.10986"
       y="146.15144"
       id="text4510-2-9-8-8"
       transform="matrix(0,-0.99981618,1.0001838,0,0,0)"><tspan
         sodipodi:role="line"
         id="tspan4508-1-1-3-1"
         x="-170.10986"
         y="146.15144"
         style="text-align:center;text-anchor:middle;stroke-width:0.26458332">LSB</tspan></text>
    <text
       xml:space="preserve"
       style="font-style:normal;font-weight:normal;font-size:2.7063458px;line-height:1.25;font-family:sans-serif;text-align:center;letter-spacing:0px;word-spacing:0px;text-anchor:middle;fill:#000000;fill-opacity:1;stroke:none;stroke-width:0.26458332"
       x="-170.10986"
       y="117.89563"
       id="text4510-0-9-6-4-3"
       transform="matrix(0,-0.99981618,1.0001838,0,0,0)"><tspan
         sodipodi:role="line"
         id="tspan4508-5-3-1-2-1"
         x="-170.10986"
         y="117.89563"
         style="text-align:center;text-anchor:middle;stroke-width:0.26458332">MSB</tspan></text>
    <rect
       style="fill:#f4d7d7;fill-opacity:1;stroke:#000000;stroke-width:0.26458332;stroke-linecap:square;stroke-miterlimit:4;stroke-dasharray:none;stroke-dashoffset:0;stroke-opacity:1"
       id="rect4487-04-9"
       width="7.9375005"
       height="63.523342"
       x="-193.81247"
       y="-11.952969"
       transform="rotate(-90)" />
    <text
       xml:space="preserve"
       style="font-style:normal;font-weight:normal;font-size:5.48753166px;line-height:1.25;font-family:sans-serif;text-align:center;letter-spacing:0px;word-spacing:0px;text-anchor:middle;fill:#000000;fill-opacity:1;stroke:none;stroke-width:0.26458332"
       x="19.845242"
       y="200.16428"
       id="text4491-8-1"
       transform="scale(1.0001838,0.99981618)"><tspan
         sodipodi:role="line"
         id="tspan4489-1-7"
         x="19.845242"
         y="200.16428"
         style="font-style:normal;font-variant:normal;font-weight:normal;font-stretch:normal;font-family:Consolas;-inkscape-font-specification:Consolas;text-align:center;text-anchor:middle;stroke-width:0.26458332">v1: WORD</tspan></text>
    <text
       xml:space="preserve"
       style="font-style:normal;font-weight:normal;font-size:2.7063458px;line-height:1.25;font-family:sans-serif;text-align:center;letter-spacing:0px;word-spacing:0px;text-anchor:middle;fill:#000000;fill-opacity:1;stroke:none;stroke-width:0.26458332"
       x="-189.95724"
       y="19.128103"
       id="text4510-24-0"
       transform="matrix(0,-0.99981618,1.0001838,0,0,0)"><tspan
         sodipodi:role="line"
         id="tspan4508-9-6"
         x="-189.95724"
         y="19.128103"
         style="text-align:center;text-anchor:middle;stroke-width:0.26458332">LSB</tspan></text>
    <text
       xml:space="preserve"
       style="font-style:normal;font-weight:normal;font-size:2.7063458px;line-height:1.25;font-family:sans-serif;text-align:center;letter-spacing:0px;word-spacing:0px;text-anchor:middle;fill:#000000;fill-opacity:1;stroke:none;stroke-width:0.26458332"
       x="-189.95724"
       y="22.486301"
       id="text4510-0-96-5"
       transform="matrix(0,-0.99981618,1.0001838,0,0,0)"><tspan
         sodipodi:role="line"
         id="tspan4508-5-8-4"
         x="-189.95724"
         y="22.486301"
         style="text-align:center;text-anchor:middle;stroke-width:0.26458332">MSB</tspan></text>
    <rect
       style="fill:#f4d7d7;fill-opacity:1;stroke:#000000;stroke-width:0.26458332;stroke-linecap:square;stroke-miterlimit:4;stroke-dasharray:none;stroke-dashoffset:0;stroke-opacity:1"
       id="rect4487-0-6-1"
       width="7.9375005"
       height="63.523342"
       x="-193.81242"
       y="51.5704"
       transform="rotate(-90)" />
    <text
       xml:space="preserve"
       style="font-style:normal;font-weight:normal;font-size:5.48753214px;line-height:1.25;font-family:sans-serif;text-align:center;letter-spacing:0px;word-spacing:0px;text-anchor:middle;fill:#000000;fill-opacity:1;stroke:none;stroke-width:0.26458332"
       x="83.356934"
       y="200.16428"
       id="text4491-1-3-4"
       transform="scale(1.0001838,0.99981618)"><tspan
         sodipodi:role="line"
         id="tspan4489-9-2-2"
         x="83.356934"
         y="200.16428"
         style="font-style:normal;font-variant:normal;font-weight:normal;font-stretch:normal;font-family:Consolas;-inkscape-font-specification:Consolas;text-align:center;text-anchor:middle;stroke-width:0.26458332">v2: ARRAY[0..15]</tspan></text>
    <rect
       style="fill:none;fill-opacity:1;stroke:#000000;stroke-width:0.07937501;stroke-linecap:square;stroke-miterlimit:4;stroke-dasharray:none;stroke-dashoffset:0;stroke-opacity:1"
       id="rect4487-6-1-588-2"
       width="7.9375005"
       height="3.9702151"
       x="-193.81242"
       y="51.570377"
       transform="rotate(-90)" />
    <text
       xml:space="preserve"
       style="font-style:normal;font-weight:normal;font-size:2.7063458px;line-height:1.25;font-family:sans-serif;text-align:center;letter-spacing:0px;word-spacing:0px;text-anchor:middle;fill:#000000;fill-opacity:1;stroke:none;stroke-width:0.26458332"
       x="-189.87727"
       y="113.85695"
       id="text4510-1-57-3"
       transform="matrix(0,-0.99981618,1.0001838,0,0,0)"><tspan
         sodipodi:role="line"
         id="tspan4508-0-1-6"
         x="-189.87727"
         y="113.85695"
         style="text-align:center;text-anchor:middle;stroke-width:0.26458332">[8]</tspan></text>
    <rect
       style="fill:none;fill-opacity:1;stroke:#000000;stroke-width:0.07937501;stroke-linecap:square;stroke-miterlimit:4;stroke-dasharray:none;stroke-dashoffset:0;stroke-opacity:1"
       id="rect4487-6-1-2-3-2"
       width="7.9375005"
       height="3.9702151"
       x="-193.81242"
       y="55.540585"
       transform="rotate(-90)" />
    <rect
       style="fill:none;fill-opacity:1;stroke:#000000;stroke-width:0.07937501;stroke-linecap:square;stroke-miterlimit:4;stroke-dasharray:none;stroke-dashoffset:0;stroke-opacity:1"
       id="rect4487-6-1-3-5-2"
       width="7.9375005"
       height="3.9702151"
       x="-193.81242"
       y="59.510788"
       transform="rotate(-90)" />
    <rect
       style="fill:none;fill-opacity:1;stroke:#000000;stroke-width:0.07937501;stroke-linecap:square;stroke-miterlimit:4;stroke-dasharray:none;stroke-dashoffset:0;stroke-opacity:1"
       id="rect4487-6-1-36-6-0"
       width="7.9375005"
       height="3.9702151"
       x="-193.81242"
       y="63.48101"
       transform="rotate(-90)" />
    <rect
       style="fill:none;fill-opacity:1;stroke:#000000;stroke-width:0.07937501;stroke-linecap:square;stroke-miterlimit:4;stroke-dasharray:none;stroke-dashoffset:0;stroke-opacity:1"
       id="rect4487-6-1-24-4-8"
       width="7.9375005"
       height="3.9702151"
       x="-193.81242"
       y="67.451233"
       transform="rotate(-90)" />
    <rect
       style="fill:none;fill-opacity:1;stroke:#000000;stroke-width:0.07937501;stroke-linecap:square;stroke-miterlimit:4;stroke-dasharray:none;stroke-dashoffset:0;stroke-opacity:1"
       id="rect4487-6-1-5-4-9"
       width="7.9375005"
       height="3.9702151"
       x="-193.81242"
       y="71.42144"
       transform="rotate(-90)" />
    <rect
       style="fill:none;fill-opacity:1;stroke:#000000;stroke-width:0.07937501;stroke-linecap:square;stroke-miterlimit:4;stroke-dasharray:none;stroke-dashoffset:0;stroke-opacity:1"
       id="rect4487-6-1-58-2-5"
       width="7.9375005"
       height="3.9702151"
       x="-193.81242"
       y="75.39164"
       transform="rotate(-90)" />
    <rect
       style="fill:none;fill-opacity:1;stroke:#000000;stroke-width:0.07937501;stroke-linecap:square;stroke-miterlimit:4;stroke-dasharray:none;stroke-dashoffset:0;stroke-opacity:1"
       id="rect4487-6-1-7-3-6"
       width="7.9375005"
       height="3.9702151"
       x="-193.81242"
       y="79.361862"
       transform="rotate(-90)" />
    <rect
       style="fill:none;fill-opacity:1;stroke:#000000;stroke-width:0.07937501;stroke-linecap:square;stroke-miterlimit:4;stroke-dasharray:none;stroke-dashoffset:0;stroke-opacity:1"
       id="rect4487-6-1-0-3-7"
       width="7.9375005"
       height="3.9702151"
       x="-193.81242"
       y="83.332069"
       transform="rotate(-90)" />
    <rect
       style="fill:none;fill-opacity:1;stroke:#000000;stroke-width:0.07937501;stroke-linecap:square;stroke-miterlimit:4;stroke-dasharray:none;stroke-dashoffset:0;stroke-opacity:1"
       id="rect4487-6-1-2-4-7-5"
       width="7.9375005"
       height="3.9702151"
       x="-193.81242"
       y="87.302292"
       transform="rotate(-90)" />
    <rect
       style="fill:none;fill-opacity:1;stroke:#000000;stroke-width:0.07937501;stroke-linecap:square;stroke-miterlimit:4;stroke-dasharray:none;stroke-dashoffset:0;stroke-opacity:1"
       id="rect4487-6-1-3-3-2-0"
       width="7.9375005"
       height="3.9702151"
       x="-193.81242"
       y="91.272491"
       transform="rotate(-90)" />
    <rect
       style="fill:none;fill-opacity:1;stroke:#000000;stroke-width:0.07937501;stroke-linecap:square;stroke-miterlimit:4;stroke-dasharray:none;stroke-dashoffset:0;stroke-opacity:1"
       id="rect4487-6-1-36-9-6-4"
       width="7.9375005"
       height="3.9702151"
       x="-193.81242"
       y="95.242722"
       transform="rotate(-90)" />
    <rect
       style="fill:none;fill-opacity:1;stroke:#000000;stroke-width:0.07937501;stroke-linecap:square;stroke-miterlimit:4;stroke-dasharray:none;stroke-dashoffset:0;stroke-opacity:1"
       id="rect4487-6-1-24-9-3-4"
       width="7.9375005"
       height="3.9702151"
       x="-193.81242"
       y="99.212898"
       transform="rotate(-90)" />
    <rect
       style="fill:none;fill-opacity:1;stroke:#000000;stroke-width:0.07937501;stroke-linecap:square;stroke-miterlimit:4;stroke-dasharray:none;stroke-dashoffset:0;stroke-opacity:1"
       id="rect4487-6-1-5-9-8-1"
       width="7.9375005"
       height="3.9702151"
       x="-193.81242"
       y="103.18312"
       transform="rotate(-90)" />
    <rect
       style="fill:none;fill-opacity:1;stroke:#000000;stroke-width:0.07937501;stroke-linecap:square;stroke-miterlimit:4;stroke-dasharray:none;stroke-dashoffset:0;stroke-opacity:1"
       id="rect4487-6-1-58-3-7-3"
       width="7.9375005"
       height="3.9702151"
       x="-193.81242"
       y="107.1533"
       transform="rotate(-90)" />
    <rect
       style="fill:none;fill-opacity:1;stroke:#000000;stroke-width:0.07937501;stroke-linecap:square;stroke-miterlimit:4;stroke-dasharray:none;stroke-dashoffset:0;stroke-opacity:1"
       id="rect4487-6-1-7-9-9-0"
       width="7.9375005"
       height="3.9702151"
       x="-193.81242"
       y="111.12353"
       transform="rotate(-90)" />
    <text
       xml:space="preserve"
       style="font-style:normal;font-weight:normal;font-size:2.7063458px;line-height:1.25;font-family:sans-serif;text-align:center;letter-spacing:0px;word-spacing:0px;text-anchor:middle;fill:#000000;fill-opacity:1;stroke:none;stroke-width:0.26458332"
       x="-189.87727"
       y="54.31472"
       id="text4510-1-5-8-5"
       transform="matrix(0,-0.99981618,1.0001838,0,0,0)"><tspan
         sodipodi:role="line"
         id="tspan4508-0-9-6-0"
         x="-189.87727"
         y="54.31472"
         style="text-align:center;text-anchor:middle;stroke-width:0.26458332">[7]</tspan></text>
    <text
       xml:space="preserve"
       style="font-style:normal;font-weight:normal;font-size:2.7063458px;line-height:1.25;font-family:sans-serif;text-align:center;letter-spacing:0px;word-spacing:0px;text-anchor:middle;fill:#000000;fill-opacity:1;stroke:none;stroke-width:0.26458332"
       x="-189.87727"
       y="82.101097"
       id="text4510-1-5-8-1-7"
       transform="matrix(0,-0.99981618,1.0001838,0,0,0)"><tspan
         sodipodi:role="line"
         id="tspan4508-0-9-6-6-8"
         x="-189.87727"
         y="82.101097"
         style="text-align:center;text-anchor:middle;stroke-width:0.26458332">[0]</tspan></text>
    <text
       xml:space="preserve"
       style="font-style:normal;font-weight:normal;font-size:2.7063458px;line-height:1.25;font-family:sans-serif;text-align:center;letter-spacing:0px;word-spacing:0px;text-anchor:middle;fill:#000000;fill-opacity:1;stroke:none;stroke-width:0.26458332"
       x="-189.87727"
       y="86.070587"
       id="text4510-1-5-8-1-2-4"
       transform="matrix(0,-0.99981618,1.0001838,0,0,0)"><tspan
         sodipodi:role="line"
         id="tspan4508-0-9-6-6-7-6"
         x="-189.87727"
         y="86.070587"
         style="text-align:center;text-anchor:middle;stroke-width:0.26458332">[15]</tspan></text>
    <text
       xml:space="preserve"
       style="font-style:normal;font-weight:normal;font-size:4.39728832px;line-height:1.25;font-family:sans-serif;letter-spacing:0px;word-spacing:0px;fill:#000000;fill-opacity:1;stroke:none;stroke-width:0.26458332"
       x="-33.088966"
       y="191.42668"
       id="text5404"
       transform="scale(1.0001838,0.99981618)"><tspan
         sodipodi:role="line"
         id="tspan5402"
         x="-33.088966"
         y="191.42668"
         style="font-style:normal;font-variant:normal;font-weight:normal;font-stretch:normal;font-family:Arial;-inkscape-font-specification:Arial;stroke-width:0.26458332">View:</tspan></text>
    <text
       xml:space="preserve"
       style="font-style:normal;font-weight:normal;font-size:4.39728832px;line-height:1.25;font-family:sans-serif;letter-spacing:0px;word-spacing:0px;fill:#000000;fill-opacity:1;stroke:none;stroke-width:0.26458332"
       x="-33.267178"
       y="171.1692"
       id="text5404-5"
       transform="scale(1.0001838,0.99981618)"><tspan
         sodipodi:role="line"
         id="tspan5402-2"
         x="-33.267178"
         y="171.1692"
         style="font-style:normal;font-variant:normal;font-weight:normal;font-stretch:normal;font-family:Arial;-inkscape-font-specification:Arial;stroke-width:0.26458332">Storage:</tspan></text>
    <path
       style="fill:none;stroke:#000000;stroke-width:0.07937501;stroke-linecap:butt;stroke-linejoin:miter;stroke-miterlimit:4;stroke-dasharray:0.07937499, 0.07937499;stroke-dashoffset:0;stroke-opacity:1"
       d="m 19.808708,162.06247 v 35.71875"
       id="path5424-7"
       inkscape:connector-curvature="0" />
    <path
       style="fill:none;stroke:#000000;stroke-width:0.07937501;stroke-linecap:butt;stroke-linejoin:miter;stroke-miterlimit:4;stroke-dasharray:0.07937499, 0.07937499;stroke-dashoffset:0;stroke-opacity:1"
       d="m 51.570382,162.06247 v 35.71875"
       id="path5424-1"
       inkscape:connector-curvature="0" />
    <path
       style="fill:none;stroke:#000000;stroke-width:0.07937501;stroke-linecap:butt;stroke-linejoin:miter;stroke-miterlimit:4;stroke-dasharray:0.07937499, 0.07937499;stroke-dashoffset:0;stroke-opacity:1"
       d="m 83.332058,162.06247 v 35.71875"
       id="path5424-4"
       inkscape:connector-curvature="0" />
    <path
       style="fill:none;stroke:#000000;stroke-width:0.07937501;stroke-linecap:butt;stroke-linejoin:miter;stroke-miterlimit:4;stroke-dasharray:0.07937499, 0.07937499;stroke-dashoffset:0;stroke-opacity:1"
       d="m 115.09373,162.06247 v 35.71875"
       id="path5424-9"
       inkscape:connector-curvature="0" />
    <path
       style="fill:none;stroke:#000000;stroke-width:0.07937501;stroke-linecap:butt;stroke-linejoin:miter;stroke-miterlimit:4;stroke-dasharray:0.07937499, 0.07937499;stroke-dashoffset:0;stroke-opacity:1"
       d="m 146.85541,162.06247 v 35.71875"
       id="path5424-5"
       inkscape:connector-curvature="0" />
    <path
       style="fill:none;stroke:#000000;stroke-width:0.26499999;stroke-linecap:butt;stroke-linejoin:miter;stroke-miterlimit:4;stroke-dasharray:none;stroke-opacity:1;marker-start:url(#StopL);marker-end:url(#StopL)"
       d="m -11.90625,158.09373 h 31.75"
       id="path4686"
       inkscape:connector-curvature="0" />
    <path
       style="fill:none;stroke:#000000;stroke-width:0.26499999;stroke-linecap:butt;stroke-linejoin:miter;stroke-miterlimit:4;stroke-dasharray:none;stroke-opacity:1;marker-start:url(#StopL-3);marker-end:url(#StopL-3)"
       d="M 51.593752,158.09373 H 115.09375"
       id="path4686-9"
       inkscape:connector-curvature="0" />
    <path
       style="fill:none;stroke:#000000;stroke-width:0.26499999;stroke-linecap:butt;stroke-linejoin:miter;stroke-miterlimit:4;stroke-dasharray:none;stroke-opacity:1;marker-start:url(#StopL-3-1);marker-end:url(#StopL-3-1)"
       d="m 115.09375,158.09373 h 31.75"
       id="path4686-9-0"
       inkscape:connector-curvature="0" />
    <path
       style="fill:none;stroke:#000000;stroke-width:0.26499999;stroke-linecap:butt;stroke-linejoin:miter;stroke-miterlimit:4;stroke-dasharray:none;stroke-opacity:1;marker-start:url(#StopL-5);marker-end:url(#StopL-5)"
       d="M -11.906249,201.74998 H 51.593749"
       id="path4686-6"
       inkscape:connector-curvature="0" />
    <path
       style="fill:none;stroke:#000000;stroke-width:0.26499999;stroke-linecap:butt;stroke-linejoin:miter;stroke-miterlimit:4;stroke-dasharray:none;stroke-opacity:1;marker-start:url(#StopL-5-5);marker-end:url(#StopL-5-5)"
       d="M 51.593751,201.74998 H 115.09375"
       id="path4686-6-5"
       inkscape:connector-curvature="0" />
    <path
       style="fill:none;stroke:#000000;stroke-width:0.07937501;stroke-linecap:butt;stroke-linejoin:miter;stroke-miterlimit:4;stroke-dasharray:none;stroke-opacity:1"
       d="m 19.84375,185.87498 v 7.9375"
       id="path6544-5"
       inkscape:connector-curvature="0" />
    <g
       id="g4707"
       transform="translate(-11.90625,31.750019)">
      <rect
         transform="rotate(-90)"
         y="63.5"
         x="-142.21873"
         height="63.499996"
         width="7.9375005"
         id="rect4487-4-0-3-3"
         style="fill:#d7f4d7;fill-opacity:1;stroke:#000000;stroke-width:0.26458332;stroke-linecap:square;stroke-miterlimit:4;stroke-dasharray:none;stroke-dashoffset:0;stroke-opacity:1" />
      <text
         transform="matrix(0,-0.99981624,1.0001838,0,0,0)"
         id="text4510-0-9-6-1-4"
         y="66.311348"
         x="-138.354"
         style="font-style:normal;font-weight:normal;font-size:2.7063458px;line-height:1.25;font-family:sans-serif;text-align:center;letter-spacing:0px;word-spacing:0px;text-anchor:middle;fill:#000000;fill-opacity:1;stroke:none;stroke-width:0.26458332"
         xml:space="preserve"><tspan
           style="text-align:center;text-anchor:middle;stroke-width:0.26458332"
           y="66.311348"
           x="-138.354"
           id="tspan4508-5-3-1-3-3"
           sodipodi:role="line">MSB</tspan></text>
      <text
         transform="matrix(0,-0.99981624,1.0001838,0,0,0)"
         id="text4510-2-9-3-7-3"
         y="126.31136"
         x="-138.354"
         style="font-style:normal;font-weight:normal;font-size:2.7063458px;line-height:1.25;font-family:sans-serif;text-align:center;letter-spacing:0px;word-spacing:0px;text-anchor:middle;fill:#000000;fill-opacity:1;stroke:none;stroke-width:0.26458332"
         xml:space="preserve"><tspan
           style="text-align:center;text-anchor:middle;stroke-width:0.26458332"
           y="126.31136"
           x="-138.354"
           id="tspan4508-1-1-4-1-6"
           sodipodi:role="line">LSB</tspan></text>
      <path
         inkscape:connector-curvature="0"
         id="path6544-0"
         d="m 95.25,134.28121 v 7.9375"
         style="fill:none;stroke:#000000;stroke-width:0.07937501;stroke-linecap:butt;stroke-linejoin:miter;stroke-miterlimit:4;stroke-dasharray:none;stroke-opacity:1" />
    </g>
  </g>
</svg>
