<?xml version="1.0" encoding="UTF-8" standalone="no"?>
<!-- Created with Inkscape (http://www.inkscape.org/) -->

<svg
   xmlns:dc="http://purl.org/dc/elements/1.1/"
   xmlns:cc="http://creativecommons.org/ns#"
   xmlns:rdf="http://www.w3.org/1999/02/22-rdf-syntax-ns#"
   xmlns:svg="http://www.w3.org/2000/svg"
   xmlns="http://www.w3.org/2000/svg"
   xmlns:sodipodi="http://sodipodi.sourceforge.net/DTD/sodipodi-0.dtd"
   xmlns:inkscape="http://www.inkscape.org/namespaces/inkscape"
   width="320.63303"
   height="174.0545"
   viewBox="0 0 84.834153 46.051921"
   version="1.1"
   id="svg8"
   inkscape:version="0.92.1 r15371"
   sodipodi:docname="memory-layout-arrayoffset.svg">
  <defs
     id="defs2">
    <marker
       inkscape:stockid="StopL"
       orient="auto"
       refY="0"
       refX="0"
       id="StopL"
       style="overflow:visible"
       inkscape:isstock="true">
      <path
         id="path4857"
         d="M 0,5.65 V -5.65"
         style="fill:none;fill-opacity:0.75;fill-rule:evenodd;stroke:#000000;stroke-width:1.00000003pt;stroke-opacity:1"
         transform="scale(0.8)"
         inkscape:connector-curvature="0" />
    </marker>
    <marker
       inkscape:stockid="StopL"
       orient="auto"
       refY="0"
       refX="0"
       id="StopL-3"
       style="overflow:visible"
       inkscape:isstock="true">
      <path
         inkscape:connector-curvature="0"
         id="path4857-8"
         d="M 0,5.65 V -5.65"
         style="fill:none;fill-opacity:0.75;fill-rule:evenodd;stroke:#000000;stroke-width:1.00000003pt;stroke-opacity:1"
         transform="scale(0.8)" />
    </marker>
    <marker
       inkscape:stockid="StopL"
       orient="auto"
       refY="0"
       refX="0"
       id="marker5024"
       style="overflow:visible"
       inkscape:isstock="true">
      <path
         inkscape:connector-curvature="0"
         id="path5022"
         d="M 0,5.65 V -5.65"
         style="fill:none;fill-opacity:0.75;fill-rule:evenodd;stroke:#000000;stroke-width:1.00000003pt;stroke-opacity:1"
         transform="scale(0.8)" />
    </marker>
    <marker
       inkscape:stockid="StopL"
       orient="auto"
       refY="0"
       refX="0"
       id="StopL-3-1"
       style="overflow:visible"
       inkscape:isstock="true">
      <path
         inkscape:connector-curvature="0"
         id="path4857-8-3"
         d="M 0,5.65 V -5.65"
         style="fill:none;fill-opacity:0.75;fill-rule:evenodd;stroke:#000000;stroke-width:1.00000003pt;stroke-opacity:1"
         transform="scale(0.8)" />
    </marker>
    <marker
       inkscape:stockid="StopL"
       orient="auto"
       refY="0"
       refX="0"
       id="marker5389"
       style="overflow:visible"
       inkscape:isstock="true">
      <path
         inkscape:connector-curvature="0"
         id="path5387"
         d="M 0,5.65 V -5.65"
         style="fill:none;fill-opacity:0.75;fill-rule:evenodd;stroke:#000000;stroke-width:1.00000003pt;stroke-opacity:1"
         transform="scale(0.8)" />
    </marker>
    <marker
       inkscape:stockid="StopL"
       orient="auto"
       refY="0"
       refX="0"
       id="StopL-5"
       style="overflow:visible"
       inkscape:isstock="true">
      <path
         inkscape:connector-curvature="0"
         id="path4857-89"
         d="M 0,5.65 V -5.65"
         style="fill:none;fill-opacity:0.75;fill-rule:evenodd;stroke:#000000;stroke-width:1.00000003pt;stroke-opacity:1"
         transform="scale(0.8)" />
    </marker>
    <marker
       inkscape:stockid="StopL"
       orient="auto"
       refY="0"
       refX="0"
       id="marker5770"
       style="overflow:visible"
       inkscape:isstock="true">
      <path
         inkscape:connector-curvature="0"
         id="path5768"
         d="M 0,5.65 V -5.65"
         style="fill:none;fill-opacity:0.75;fill-rule:evenodd;stroke:#000000;stroke-width:1.00000003pt;stroke-opacity:1"
         transform="scale(0.8)" />
    </marker>
    <marker
       inkscape:stockid="StopL"
       orient="auto"
       refY="0"
       refX="0"
       id="StopL-5-5"
       style="overflow:visible"
       inkscape:isstock="true">
      <path
         inkscape:connector-curvature="0"
         id="path4857-89-6"
         d="M 0,5.65 V -5.65"
         style="fill:none;fill-opacity:0.75;fill-rule:evenodd;stroke:#000000;stroke-width:1.00000003pt;stroke-opacity:1"
         transform="scale(0.8)" />
    </marker>
    <marker
       inkscape:stockid="StopL"
       orient="auto"
       refY="0"
       refX="0"
       id="marker6263"
       style="overflow:visible"
       inkscape:isstock="true">
      <path
         inkscape:connector-curvature="0"
         id="path6261"
         d="M 0,5.65 V -5.65"
         style="fill:none;fill-opacity:0.75;fill-rule:evenodd;stroke:#000000;stroke-width:1.00000003pt;stroke-opacity:1"
         transform="scale(0.8)" />
    </marker>
  </defs>
  <sodipodi:namedview
     id="base"
     pagecolor="#ffffff"
     bordercolor="#666666"
     borderopacity="1.0"
     inkscape:pageopacity="0.0"
     inkscape:pageshadow="2"
     inkscape:zoom="1.979899"
     inkscape:cx="197.81778"
     inkscape:cy="86.269917"
     inkscape:document-units="mm"
     inkscape:current-layer="layer1"
     showgrid="true"
     units="px"
     inkscape:window-width="1920"
     inkscape:window-height="1017"
     inkscape:window-x="-8"
     inkscape:window-y="-8"
     inkscape:window-maximized="1"
     fit-margin-top="0"
     fit-margin-left="0"
     fit-margin-right="0"
     fit-margin-bottom="0">
    <inkscape:grid
       type="xygrid"
       id="grid4485"
       spacingx="3.96875"
       spacingy="3.96875"
       empspacing="8"
       originx="33.075721"
       originy="-94.052139" />
  </sodipodi:namedview>
  <metadata
     id="metadata5">
    <rdf:RDF>
      <cc:Work
         rdf:about="">
        <dc:format>image/svg+xml</dc:format>
        <dc:type
           rdf:resource="http://purl.org/dc/dcmitype/StillImage" />
        <dc:title></dc:title>
      </cc:Work>
    </rdf:RDF>
  </metadata>
  <g
     inkscape:label="Layer 1"
     inkscape:groupmode="layer"
     id="layer1"
     transform="translate(33.075721,-156.89592)">
    <path
       style="fill:none;stroke:#000000;stroke-width:0.07937498;stroke-linecap:butt;stroke-linejoin:miter;stroke-miterlimit:4;stroke-dasharray:0.07937499, 0.07937499;stroke-dashoffset:0;stroke-opacity:1"
       d="m -11.952968,162.06247 v 35.71875"
       id="path5424"
       inkscape:connector-curvature="0" />
    <text
       xml:space="preserve"
       style="font-style:normal;font-weight:normal;font-size:5.48753166px;line-height:1.25;font-family:sans-serif;text-align:center;letter-spacing:0px;word-spacing:0px;text-anchor:middle;fill:#000000;fill-opacity:1;stroke:none;stroke-width:0.26458332"
       x="19.891943"
       y="163.64508"
       id="text4491-6-6"
       transform="scale(1.0001838,0.99981621)"><tspan
         sodipodi:role="line"
         id="tspan4489-6-0"
         x="19.891943"
         y="163.64508"
         style="font-style:normal;font-variant:normal;font-weight:normal;font-stretch:normal;font-family:Consolas;-inkscape-font-specification:Consolas;text-align:center;text-anchor:middle;stroke-width:0.26458332">ARRAY[0..15]</tspan></text>
    <rect
       style="fill:#f4d7d7;fill-opacity:1;stroke:#000000;stroke-width:0.26458332;stroke-linecap:square;stroke-miterlimit:4;stroke-dasharray:none;stroke-dashoffset:0;stroke-opacity:1"
       id="rect4487-0-6-1"
       width="7.9375005"
       height="63.523342"
       x="-193.81248"
       y="-11.910603"
       transform="rotate(-90)" />
    <text
       xml:space="preserve"
       style="font-style:normal;font-weight:normal;font-size:5.48753214px;line-height:1.25;font-family:sans-serif;text-align:center;letter-spacing:0px;word-spacing:0px;text-anchor:middle;fill:#000000;fill-opacity:1;stroke:none;stroke-width:0.26458332"
       x="19.887596"
       y="200.16432"
       id="text4491-1-3-4"
       transform="scale(1.0001838,0.99981621)"><tspan
         sodipodi:role="line"
         id="tspan4489-9-2-2"
         x="19.887594"
         y="200.16432"
         style="font-style:normal;font-variant:normal;font-weight:normal;font-stretch:normal;font-family:Consolas;-inkscape-font-specification:Consolas;text-align:center;text-anchor:middle;stroke-width:0.26458332">ARRAY[100..115]</tspan></text>
    <rect
       style="fill:none;fill-opacity:1;stroke:#000000;stroke-width:0.07937501;stroke-linecap:square;stroke-miterlimit:4;stroke-dasharray:none;stroke-dashoffset:0;stroke-opacity:1"
       id="rect4487-6-1-588-2"
       width="7.9375005"
       height="3.9702151"
       x="-193.81248"
       y="-11.910625"
       transform="rotate(-90)" />
    <text
       xml:space="preserve"
       style="font-style:normal;font-weight:normal;font-size:2.7063458px;line-height:1.25;font-family:sans-serif;text-align:center;letter-spacing:0px;word-spacing:0px;text-anchor:middle;fill:#000000;fill-opacity:1;stroke:none;stroke-width:0.26458332"
       x="-189.87732"
       y="50.387611"
       id="text4510-1-57-3"
       transform="matrix(0,-0.99981621,1.0001838,0,0,0)"><tspan
         sodipodi:role="line"
         id="tspan4508-0-1-6"
         x="-189.87732"
         y="50.387611"
         style="text-align:center;text-anchor:middle;stroke-width:0.26458332">[108]</tspan></text>
    <rect
       style="fill:none;fill-opacity:1;stroke:#000000;stroke-width:0.07937501;stroke-linecap:square;stroke-miterlimit:4;stroke-dasharray:none;stroke-dashoffset:0;stroke-opacity:1"
       id="rect4487-6-1-2-3-2"
       width="7.9375005"
       height="3.9702151"
       x="-193.81248"
       y="-7.9404182"
       transform="rotate(-90)" />
    <rect
       style="fill:none;fill-opacity:1;stroke:#000000;stroke-width:0.07937501;stroke-linecap:square;stroke-miterlimit:4;stroke-dasharray:none;stroke-dashoffset:0;stroke-opacity:1"
       id="rect4487-6-1-3-5-2"
       width="7.9375005"
       height="3.9702151"
       x="-193.81248"
       y="-3.9702148"
       transform="rotate(-90)" />
    <rect
       style="fill:none;fill-opacity:1;stroke:#000000;stroke-width:0.07937501;stroke-linecap:square;stroke-miterlimit:4;stroke-dasharray:none;stroke-dashoffset:0;stroke-opacity:1"
       id="rect4487-6-1-36-6-0"
       width="7.9375005"
       height="3.9702151"
       x="-193.81248"
       y="7.6293945e-006"
       transform="rotate(-90)" />
    <rect
       style="fill:none;fill-opacity:1;stroke:#000000;stroke-width:0.07937501;stroke-linecap:square;stroke-miterlimit:4;stroke-dasharray:none;stroke-dashoffset:0;stroke-opacity:1"
       id="rect4487-6-1-24-4-8"
       width="7.9375005"
       height="3.9702151"
       x="-193.81248"
       y="3.9702301"
       transform="rotate(-90)" />
    <rect
       style="fill:none;fill-opacity:1;stroke:#000000;stroke-width:0.07937501;stroke-linecap:square;stroke-miterlimit:4;stroke-dasharray:none;stroke-dashoffset:0;stroke-opacity:1"
       id="rect4487-6-1-5-4-9"
       width="7.9375005"
       height="3.9702151"
       x="-193.81248"
       y="7.9404373"
       transform="rotate(-90)" />
    <rect
       style="fill:none;fill-opacity:1;stroke:#000000;stroke-width:0.07937501;stroke-linecap:square;stroke-miterlimit:4;stroke-dasharray:none;stroke-dashoffset:0;stroke-opacity:1"
       id="rect4487-6-1-58-2-5"
       width="7.9375005"
       height="3.9702151"
       x="-193.81248"
       y="11.910637"
       transform="rotate(-90)" />
    <rect
       style="fill:none;fill-opacity:1;stroke:#000000;stroke-width:0.07937501;stroke-linecap:square;stroke-miterlimit:4;stroke-dasharray:none;stroke-dashoffset:0;stroke-opacity:1"
       id="rect4487-6-1-7-3-6"
       width="7.9375005"
       height="3.9702151"
       x="-193.81248"
       y="15.880859"
       transform="rotate(-90)" />
    <rect
       style="fill:none;fill-opacity:1;stroke:#000000;stroke-width:0.07937501;stroke-linecap:square;stroke-miterlimit:4;stroke-dasharray:none;stroke-dashoffset:0;stroke-opacity:1"
       id="rect4487-6-1-0-3-7"
       width="7.9375005"
       height="3.9702151"
       x="-193.81248"
       y="19.851067"
       transform="rotate(-90)" />
    <rect
       style="fill:none;fill-opacity:1;stroke:#000000;stroke-width:0.07937501;stroke-linecap:square;stroke-miterlimit:4;stroke-dasharray:none;stroke-dashoffset:0;stroke-opacity:1"
       id="rect4487-6-1-2-4-7-5"
       width="7.9375005"
       height="3.9702151"
       x="-193.81248"
       y="23.821289"
       transform="rotate(-90)" />
    <rect
       style="fill:none;fill-opacity:1;stroke:#000000;stroke-width:0.07937501;stroke-linecap:square;stroke-miterlimit:4;stroke-dasharray:none;stroke-dashoffset:0;stroke-opacity:1"
       id="rect4487-6-1-3-3-2-0"
       width="7.9375005"
       height="3.9702151"
       x="-193.81248"
       y="27.791489"
       transform="rotate(-90)" />
    <rect
       style="fill:none;fill-opacity:1;stroke:#000000;stroke-width:0.07937501;stroke-linecap:square;stroke-miterlimit:4;stroke-dasharray:none;stroke-dashoffset:0;stroke-opacity:1"
       id="rect4487-6-1-36-9-6-4"
       width="7.9375005"
       height="3.9702151"
       x="-193.81248"
       y="31.761719"
       transform="rotate(-90)" />
    <rect
       style="fill:none;fill-opacity:1;stroke:#000000;stroke-width:0.07937501;stroke-linecap:square;stroke-miterlimit:4;stroke-dasharray:none;stroke-dashoffset:0;stroke-opacity:1"
       id="rect4487-6-1-24-9-3-4"
       width="7.9375005"
       height="3.9702151"
       x="-193.81248"
       y="35.731895"
       transform="rotate(-90)" />
    <rect
       style="fill:none;fill-opacity:1;stroke:#000000;stroke-width:0.07937501;stroke-linecap:square;stroke-miterlimit:4;stroke-dasharray:none;stroke-dashoffset:0;stroke-opacity:1"
       id="rect4487-6-1-5-9-8-1"
       width="7.9375005"
       height="3.9702151"
       x="-193.81248"
       y="39.702118"
       transform="rotate(-90)" />
    <rect
       style="fill:none;fill-opacity:1;stroke:#000000;stroke-width:0.07937501;stroke-linecap:square;stroke-miterlimit:4;stroke-dasharray:none;stroke-dashoffset:0;stroke-opacity:1"
       id="rect4487-6-1-58-3-7-3"
       width="7.9375005"
       height="3.9702151"
       x="-193.81248"
       y="43.672295"
       transform="rotate(-90)" />
    <rect
       style="fill:none;fill-opacity:1;stroke:#000000;stroke-width:0.07937501;stroke-linecap:square;stroke-miterlimit:4;stroke-dasharray:none;stroke-dashoffset:0;stroke-opacity:1"
       id="rect4487-6-1-7-9-9-0"
       width="7.9375005"
       height="3.9702151"
       x="-193.81248"
       y="47.642525"
       transform="rotate(-90)" />
    <text
       xml:space="preserve"
       style="font-style:normal;font-weight:normal;font-size:2.7063458px;line-height:1.25;font-family:sans-serif;text-align:center;letter-spacing:0px;word-spacing:0px;text-anchor:middle;fill:#000000;fill-opacity:1;stroke:none;stroke-width:0.26458332"
       x="-189.87732"
       y="-9.1546164"
       id="text4510-1-5-8-5"
       transform="matrix(0,-0.99981621,1.0001838,0,0,0)"><tspan
         sodipodi:role="line"
         id="tspan4508-0-9-6-0"
         x="-189.87732"
         y="-9.1546164"
         style="text-align:center;text-anchor:middle;stroke-width:0.26458332">[107]</tspan></text>
    <text
       xml:space="preserve"
       style="font-style:normal;font-weight:normal;font-size:2.7063458px;line-height:1.25;font-family:sans-serif;text-align:center;letter-spacing:0px;word-spacing:0px;text-anchor:middle;fill:#000000;fill-opacity:1;stroke:none;stroke-width:0.26458332"
       x="-189.87732"
       y="18.63176"
       id="text4510-1-5-8-1-7"
       transform="matrix(0,-0.99981621,1.0001838,0,0,0)"><tspan
         sodipodi:role="line"
         id="tspan4508-0-9-6-6-8"
         x="-189.87732"
         y="18.63176"
         style="text-align:center;text-anchor:middle;stroke-width:0.26458332">[100]</tspan></text>
    <text
       xml:space="preserve"
       style="font-style:normal;font-weight:normal;font-size:2.7063458px;line-height:1.25;font-family:sans-serif;text-align:center;letter-spacing:0px;word-spacing:0px;text-anchor:middle;fill:#000000;fill-opacity:1;stroke:none;stroke-width:0.26458332"
       x="-189.87732"
       y="22.60125"
       id="text4510-1-5-8-1-2-4"
       transform="matrix(0,-0.99981621,1.0001838,0,0,0)"><tspan
         sodipodi:role="line"
         id="tspan4508-0-9-6-6-7-6"
         x="-189.87732"
         y="22.60125"
         style="text-align:center;text-anchor:middle;stroke-width:0.26458332">[115]</tspan></text>
    <text
       xml:space="preserve"
       style="font-style:normal;font-weight:normal;font-size:4.39728832px;line-height:1.25;font-family:sans-serif;letter-spacing:0px;word-spacing:0px;fill:#000000;fill-opacity:1;stroke:none;stroke-width:0.26458332"
       x="-33.088966"
       y="191.42668"
       id="text5404"
       transform="scale(1.0001838,0.99981618)"><tspan
         sodipodi:role="line"
         id="tspan5402"
         x="-33.088966"
         y="191.42668"
         style="font-style:normal;font-variant:normal;font-weight:normal;font-stretch:normal;font-family:Arial;-inkscape-font-specification:Arial;stroke-width:0.26458332">View:</tspan></text>
    <text
       xml:space="preserve"
       style="font-style:normal;font-weight:normal;font-size:4.39728832px;line-height:1.25;font-family:sans-serif;letter-spacing:0px;word-spacing:0px;fill:#000000;fill-opacity:1;stroke:none;stroke-width:0.26458332"
       x="-33.267178"
       y="171.1692"
       id="text5404-5"
       transform="scale(1.0001838,0.99981618)"><tspan
         sodipodi:role="line"
         id="tspan5402-2"
         x="-33.267178"
         y="171.1692"
         style="font-style:normal;font-variant:normal;font-weight:normal;font-stretch:normal;font-family:Arial;-inkscape-font-specification:Arial;stroke-width:0.26458332">Storage:</tspan></text>
    <path
       style="fill:none;stroke:#000000;stroke-width:0.07937501;stroke-linecap:butt;stroke-linejoin:miter;stroke-miterlimit:4;stroke-dasharray:0.07937499, 0.07937499;stroke-dashoffset:0;stroke-opacity:1"
       d="m 19.808708,162.06247 v 35.71875"
       id="path5424-7"
       inkscape:connector-curvature="0" />
    <path
       style="fill:none;stroke:#000000;stroke-width:0.07937501;stroke-linecap:butt;stroke-linejoin:miter;stroke-miterlimit:4;stroke-dasharray:0.07937499, 0.07937499;stroke-dashoffset:0;stroke-opacity:1"
       d="m 51.570382,162.06247 v 35.71875"
       id="path5424-1"
       inkscape:connector-curvature="0" />
    <path
       style="fill:none;stroke:#000000;stroke-width:0.26499999;stroke-linecap:butt;stroke-linejoin:miter;stroke-miterlimit:4;stroke-dasharray:none;stroke-opacity:1;marker-start:url(#StopL-3);marker-end:url(#StopL-3)"
       d="M -11.882894,158.09372 H 51.617104"
       id="path4686-9"
       inkscape:connector-curvature="0" />
    <path
       style="fill:none;stroke:#000000;stroke-width:0.26499999;stroke-linecap:butt;stroke-linejoin:miter;stroke-miterlimit:4;stroke-dasharray:none;stroke-opacity:1;marker-start:url(#StopL-5-5);marker-end:url(#StopL-5-5)"
       d="M -11.887252,201.75004 H 51.612747"
       id="path4686-6-5"
       inkscape:connector-curvature="0" />
    <g
       id="g6865"
       transform="translate(0.00146675,47.625003)">
      <rect
         transform="rotate(-90)"
         y="-11.910603"
         x="-126.34373"
         height="63.523342"
         width="7.9375005"
         id="rect4487-0-6-1-6"
         style="fill:#d7f4d7;fill-opacity:1;stroke:#000000;stroke-width:0.26458332;stroke-linecap:square;stroke-miterlimit:4;stroke-dasharray:none;stroke-dashoffset:0;stroke-opacity:1" />
      <rect
         transform="rotate(-90)"
         y="-11.910625"
         x="-126.34373"
         height="3.9702151"
         width="7.9375005"
         id="rect4487-6-1-588-2-2"
         style="fill:none;fill-opacity:1;stroke:#000000;stroke-width:0.07937501;stroke-linecap:square;stroke-miterlimit:4;stroke-dasharray:none;stroke-dashoffset:0;stroke-opacity:1" />
      <text
         transform="matrix(0,-0.99981623,1.0001838,0,0,0)"
         id="text4510-1-57-3-9"
         y="50.387608"
         x="-122.39616"
         style="font-style:normal;font-weight:normal;font-size:2.7063458px;line-height:1.25;font-family:sans-serif;text-align:center;letter-spacing:0px;word-spacing:0px;text-anchor:middle;fill:#000000;fill-opacity:1;stroke:none;stroke-width:0.26458332"
         xml:space="preserve"><tspan
           style="text-align:center;text-anchor:middle;stroke-width:0.26458332"
           y="50.387608"
           x="-122.39616"
           id="tspan4508-0-1-6-5"
           sodipodi:role="line">[8]</tspan></text>
      <rect
         transform="rotate(-90)"
         y="-7.9404202"
         x="-126.34373"
         height="3.9702151"
         width="7.9375005"
         id="rect4487-6-1-2-3-2-2"
         style="fill:none;fill-opacity:1;stroke:#000000;stroke-width:0.07937501;stroke-linecap:square;stroke-miterlimit:4;stroke-dasharray:none;stroke-dashoffset:0;stroke-opacity:1" />
      <rect
         transform="rotate(-90)"
         y="-3.9702168"
         x="-126.34373"
         height="3.9702151"
         width="7.9375005"
         id="rect4487-6-1-3-5-2-9"
         style="fill:none;fill-opacity:1;stroke:#000000;stroke-width:0.07937501;stroke-linecap:square;stroke-miterlimit:4;stroke-dasharray:none;stroke-dashoffset:0;stroke-opacity:1" />
      <rect
         transform="rotate(-90)"
         y="5.6096719e-006"
         x="-126.34373"
         height="3.9702151"
         width="7.9375005"
         id="rect4487-6-1-36-6-0-8"
         style="fill:none;fill-opacity:1;stroke:#000000;stroke-width:0.07937501;stroke-linecap:square;stroke-miterlimit:4;stroke-dasharray:none;stroke-dashoffset:0;stroke-opacity:1" />
      <rect
         transform="rotate(-90)"
         y="3.9702282"
         x="-126.34373"
         height="3.9702151"
         width="7.9375005"
         id="rect4487-6-1-24-4-8-8"
         style="fill:none;fill-opacity:1;stroke:#000000;stroke-width:0.07937501;stroke-linecap:square;stroke-miterlimit:4;stroke-dasharray:none;stroke-dashoffset:0;stroke-opacity:1" />
      <rect
         transform="rotate(-90)"
         y="7.9404354"
         x="-126.34373"
         height="3.9702151"
         width="7.9375005"
         id="rect4487-6-1-5-4-9-6"
         style="fill:none;fill-opacity:1;stroke:#000000;stroke-width:0.07937501;stroke-linecap:square;stroke-miterlimit:4;stroke-dasharray:none;stroke-dashoffset:0;stroke-opacity:1" />
      <rect
         transform="rotate(-90)"
         y="11.910637"
         x="-126.34373"
         height="3.9702151"
         width="7.9375005"
         id="rect4487-6-1-58-2-5-5"
         style="fill:none;fill-opacity:1;stroke:#000000;stroke-width:0.07937501;stroke-linecap:square;stroke-miterlimit:4;stroke-dasharray:none;stroke-dashoffset:0;stroke-opacity:1" />
      <rect
         transform="rotate(-90)"
         y="15.880858"
         x="-126.34373"
         height="3.9702151"
         width="7.9375005"
         id="rect4487-6-1-7-3-6-9"
         style="fill:none;fill-opacity:1;stroke:#000000;stroke-width:0.07937501;stroke-linecap:square;stroke-miterlimit:4;stroke-dasharray:none;stroke-dashoffset:0;stroke-opacity:1" />
      <rect
         transform="rotate(-90)"
         y="19.851068"
         x="-126.34373"
         height="3.9702151"
         width="7.9375005"
         id="rect4487-6-1-0-3-7-8"
         style="fill:none;fill-opacity:1;stroke:#000000;stroke-width:0.07937501;stroke-linecap:square;stroke-miterlimit:4;stroke-dasharray:none;stroke-dashoffset:0;stroke-opacity:1" />
      <rect
         transform="rotate(-90)"
         y="23.821287"
         x="-126.34373"
         height="3.9702151"
         width="7.9375005"
         id="rect4487-6-1-2-4-7-5-2"
         style="fill:none;fill-opacity:1;stroke:#000000;stroke-width:0.07937501;stroke-linecap:square;stroke-miterlimit:4;stroke-dasharray:none;stroke-dashoffset:0;stroke-opacity:1" />
      <rect
         transform="rotate(-90)"
         y="27.791487"
         x="-126.34373"
         height="3.9702151"
         width="7.9375005"
         id="rect4487-6-1-3-3-2-0-8"
         style="fill:none;fill-opacity:1;stroke:#000000;stroke-width:0.07937501;stroke-linecap:square;stroke-miterlimit:4;stroke-dasharray:none;stroke-dashoffset:0;stroke-opacity:1" />
      <rect
         transform="rotate(-90)"
         y="31.761719"
         x="-126.34373"
         height="3.9702151"
         width="7.9375005"
         id="rect4487-6-1-36-9-6-4-6"
         style="fill:none;fill-opacity:1;stroke:#000000;stroke-width:0.07937501;stroke-linecap:square;stroke-miterlimit:4;stroke-dasharray:none;stroke-dashoffset:0;stroke-opacity:1" />
      <rect
         transform="rotate(-90)"
         y="35.731892"
         x="-126.34373"
         height="3.9702151"
         width="7.9375005"
         id="rect4487-6-1-24-9-3-4-3"
         style="fill:none;fill-opacity:1;stroke:#000000;stroke-width:0.07937501;stroke-linecap:square;stroke-miterlimit:4;stroke-dasharray:none;stroke-dashoffset:0;stroke-opacity:1" />
      <rect
         transform="rotate(-90)"
         y="39.702118"
         x="-126.34373"
         height="3.9702151"
         width="7.9375005"
         id="rect4487-6-1-5-9-8-1-9"
         style="fill:none;fill-opacity:1;stroke:#000000;stroke-width:0.07937501;stroke-linecap:square;stroke-miterlimit:4;stroke-dasharray:none;stroke-dashoffset:0;stroke-opacity:1" />
      <rect
         transform="rotate(-90)"
         y="43.672291"
         x="-126.34373"
         height="3.9702151"
         width="7.9375005"
         id="rect4487-6-1-58-3-7-3-8"
         style="fill:none;fill-opacity:1;stroke:#000000;stroke-width:0.07937501;stroke-linecap:square;stroke-miterlimit:4;stroke-dasharray:none;stroke-dashoffset:0;stroke-opacity:1" />
      <rect
         transform="rotate(-90)"
         y="47.642525"
         x="-126.34373"
         height="3.9702151"
         width="7.9375005"
         id="rect4487-6-1-7-9-9-0-5"
         style="fill:none;fill-opacity:1;stroke:#000000;stroke-width:0.07937501;stroke-linecap:square;stroke-miterlimit:4;stroke-dasharray:none;stroke-dashoffset:0;stroke-opacity:1" />
      <text
         transform="matrix(0,-0.99981623,1.0001838,0,0,0)"
         id="text4510-1-5-8-5-9"
         y="-9.1546183"
         x="-122.39616"
         style="font-style:normal;font-weight:normal;font-size:2.7063458px;line-height:1.25;font-family:sans-serif;text-align:center;letter-spacing:0px;word-spacing:0px;text-anchor:middle;fill:#000000;fill-opacity:1;stroke:none;stroke-width:0.26458332"
         xml:space="preserve"><tspan
           style="text-align:center;text-anchor:middle;stroke-width:0.26458332"
           y="-9.1546183"
           x="-122.39616"
           id="tspan4508-0-9-6-0-9"
           sodipodi:role="line">[7]</tspan></text>
      <text
         transform="matrix(0,-0.99981623,1.0001838,0,0,0)"
         id="text4510-1-5-8-1-7-2"
         y="18.63176"
         x="-122.39616"
         style="font-style:normal;font-weight:normal;font-size:2.7063458px;line-height:1.25;font-family:sans-serif;text-align:center;letter-spacing:0px;word-spacing:0px;text-anchor:middle;fill:#000000;fill-opacity:1;stroke:none;stroke-width:0.26458332"
         xml:space="preserve"><tspan
           style="text-align:center;text-anchor:middle;stroke-width:0.26458332"
           y="18.63176"
           x="-122.39616"
           id="tspan4508-0-9-6-6-8-2"
           sodipodi:role="line">[0]</tspan></text>
      <text
         transform="matrix(0,-0.99981623,1.0001838,0,0,0)"
         id="text4510-1-5-8-1-2-4-0"
         y="22.601248"
         x="-122.39616"
         style="font-style:normal;font-weight:normal;font-size:2.7063458px;line-height:1.25;font-family:sans-serif;text-align:center;letter-spacing:0px;word-spacing:0px;text-anchor:middle;fill:#000000;fill-opacity:1;stroke:none;stroke-width:0.26458332"
         xml:space="preserve"><tspan
           style="text-align:center;text-anchor:middle;stroke-width:0.26458332"
           y="22.601248"
           x="-122.39616"
           id="tspan4508-0-9-6-6-7-6-5"
           sodipodi:role="line">[15]</tspan></text>
    </g>
  </g>
</svg>
